{
"bones": [
	{ "name": "root" },
	{ "name": "bn_spine_1", "parent": "root", "length": 32.8, "x": -39.28, "y": 75.32, "rotation": 92.7 },
	{ "name": "bn_spine_2", "parent": "bn_spine_1", "length": 47, "x": 30.28, "y": 0.25, "rotation": -3.63 },
	{ "name": "bn_right_thigh", "parent": "bn_spine_1", "length": 26.45, "x": -3.84, "y": 5.52, "rotation": -174.63 },
	{ "name": "bn_left_thigh", "parent": "bn_spine_1", "length": 31.97, "x": -6.55, "y": -36.67, "rotation": -169.37 },
	{ "name": "bn_neck", "parent": "bn_spine_2", "length": 26.09, "x": 47, "rotation": -55.68 },
	{ "name": "bn_right_clavicle", "parent": "bn_spine_2", "length": 24.24, "x": 47, "rotation": 104.56 },
	{ "name": "bn_left_clavicle", "parent": "bn_spine_2", "length": 64.46, "x": 47.3, "y": 0.27, "rotation": -101.65 },
	{ "name": "bn_skull", "parent": "bn_neck", "length": 57.04, "x": 26.79, "y": -0.55, "rotation": 70.48 },
	{ "name": "bn_hat", "parent": "bn_skull", "length": 113.51, "x": 75.32, "y": -48.87, "rotation": -16.45 },
	{ "name": "bn_eyes", "parent": "bn_skull", "length": 19.35, "x": -3.41, "y": -62.18, "rotation": -13.71 },
	{ "name": "bn_left_eye", "parent": "bn_eyes", "length": 24.8, "x": 0.91, "y": -36.24, "rotation": -61.97 },
	{ "name": "bn_right_eye", "parent": "bn_eyes", "length": 56.15, "x": 7, "y": 40.17, "rotation": 68.09 },
	{ "name": "bn_right_bicep", "parent": "bn_right_clavicle", "length": 32.15, "x": 23.03, "y": -1.26, "rotation": 43.12 },
	{ "name": "bn_right_forearm", "parent": "bn_right_bicep", "length": 44, "x": 32.15, "y": -0.01, "rotation": 28.32 },
	{ "name": "bn_right_hand", "parent": "bn_right_forearm", "length": 34, "x": 44, "y": 0.32, "rotation": 21.7 },
	{ "name": "bn_left_bicep", "parent": "bn_left_clavicle", "length": 40.36, "x": 62.94, "y": -0.37, "rotation": -25.28 },
	{ "name": "bn_left_forearm", "parent": "bn_left_bicep", "length": 33.89, "x": 40.34, "y": -0.24, "rotation": -56.83 },
	{ "name": "bn_left_hand", "parent": "bn_left_forearm", "length": 31.41, "x": 34.93, "y": 0.25, "rotation": -7.62 },
	{
		"name": "bn_right_calf",
		"parent": "bn_right_thigh",
		"length": 33.29,
		"x": 29.41,
		"y": -0.95,
		"scaleX": 0.998,
		"scaleY": 0.998,
		"rotation": -24.23
	},
	{ "name": "bn_right_foot", "parent": "bn_right_calf", "length": 30.04, "x": 35.37, "y": 2.27, "rotation": 98.91 },
	{ "name": "bn_left_calf", "parent": "bn_left_thigh", "length": 29.56, "x": 31.47, "y": -0.07, "rotation": -33.44 },
	{ "name": "bn_left_foot_side", "parent": "bn_left_calf", "length": 30.19, "x": 31.35, "y": -1.92, "rotation": 106.31 }
],
"slots": [
	{ "name": "root", "bone": "root", "attachment": "128_empty_placeholder" },
	{ "name": "whole_body_ref", "bone": "root" },
	{ "name": "bn_left_bicep", "bone": "bn_left_bicep", "attachment": "left_bicep" },
	{ "name": "bn_left_thigh", "bone": "bn_left_thigh", "attachment": "left_thigh" },
	{ "name": "bn_left_foot_side", "bone": "bn_left_foot_side", "attachment": "left_foot_side" },
	{ "name": "bn_left_calf", "bone": "bn_left_calf", "attachment": "left_calf" },
	{ "name": "bn_spine_2", "bone": "bn_spine_2", "attachment": "body" },
	{ "name": "bn_left_forearm", "bone": "bn_left_forearm", "attachment": "left_forearm" },
	{ "name": "bn_left_hand", "bone": "bn_left_hand", "attachment": "left_glove" },
	{ "name": "bn_right_bicep", "bone": "bn_right_bicep", "attachment": "right_bicep" },
	{ "name": "bn_skull", "bone": "bn_skull", "attachment": "head" },
	{ "name": "bn_eyes", "bone": "bn_eyes", "attachment": "eyes" },
	{ "name": "bn_hat", "bone": "bn_hat", "attachment": "hat" },
	{ "name": "bn_right_calf", "bone": "bn_right_calf", "attachment": "right_calf" },
	{ "name": "bn_right_thigh", "bone": "bn_right_thigh", "attachment": "right_thigh" },
	{ "name": "bn_right_foot", "bone": "bn_right_foot", "attachment": "right_foot_quarter" },
	{ "name": "bn_right_forearm", "bone": "bn_right_forearm", "attachment": "right_forearm" },
	{ "name": "bn_right_hand", "bone": "bn_right_hand", "attachment": "right_glove" }
],
"skins": {
	"default": {
		"root": {
			"128_empty_placeholder": { "y": 196, "scaleX": 4, "scaleY": 4, "width": 128, "height": 128 },
			"128_white_placeholder": { "y": 196, "scaleX": 4, "scaleY": 4, "width": 128, "height": 128 }
		},
		"whole_body_ref": {
			"whole_body_ref": { "x": 12.47, "y": 194.86, "width": 303, "height": 402 }
		},
		"bn_left_bicep": {
			"left_bicep": { "x": 20.02, "y": 2.69, "rotation": 37.87, "width": 52, "height": 53 }
		},
		"bn_left_thigh": {
			"left_thigh": { "x": 18.47, "y": -3.57, "rotation": 76.67, "width": 47, "height": 56 }
		},
		"bn_left_foot_side": {
			"left_foot_side": { "x": 16.63, "y": 3.05, "rotation": 3.79, "width": 57, "height": 23 }
		},
		"bn_left_calf": {
			"left_calf": { "x": 9.13, "y": -0.53, "rotation": 110.11, "width": 40, "height": 38 }
		},
		"bn_spine_2": {
			"body": { "x": 3.01, "y": -19.15, "rotation": -89.07, "width": 103, "height": 103 }
		},
		"bn_left_forearm": {
			"left_forearm": { "x": 10.2, "y": -0.34, "rotation": 94.7, "width": 33, "height": 51 }
		},
		"bn_left_hand": {
			"left_glove": { "x": 19.36, "y": -3.19, "rotation": 102.33, "width": 46, "height": 38 }
		},
		"bn_right_bicep": {
			"right_bicep": { "x": 21.82, "y": 2.82, "rotation": 123.24, "width": 52, "height": 53 }
		},
		"bn_skull": {
			"head": { "x": 46.22, "y": -33.04, "rotation": -103.87, "width": 210, "height": 217 }
		},
		"bn_eyes": {
			"eyes": { "x": 14.58, "y": 22.4, "rotation": -90.15, "width": 161, "height": 54 }
		},
		"bn_hat": {
			"hat": { "x": 34.15, "y": 1.17, "rotation": -87.41, "width": 303, "height": 221 }
		},
		"bn_right_calf": {
			"right_calf": { "x": 11.05, "y": 1.02, "scaleX": 1.001, "scaleY": 1.001, "rotation": 106.16, "width": 62, "height": 43 }
		},
		"bn_right_thigh": {
			"right_thigh": { "x": 15.63, "y": 4.4, "rotation": 81.93, "width": 53, "height": 66 }
		},
		"bn_right_foot": {
			"right_foot_quarter": { "x": 5.88, "y": 1.34, "scaleX": 1.001, "scaleY": 1.001, "rotation": 7.24, "width": 66, "height": 28 }
		},
		"bn_right_forearm": {
			"right_forearm": { "x": 18.32, "y": -5.77, "rotation": 94.91, "width": 33, "height": 51 }
		},
		"bn_right_hand": {
			"right_glove": { "x": 16.54, "y": 0.55, "rotation": 73.21, "width": 46, "height": 38 }
		}
	}
},
"animations": {
	"base": {},
	"punch_pose": {
		"bones": {
			"bn_spine_2": {
				"rotate": [
					{ "time": 0.1, "angle": 0, "curve": "stepped" },
					{ "time": 0.3, "angle": 0 }
				],
				"translate": [
					{ "time": 0.0333, "x": -12.38, "y": 0.58, "curve": "stepped" },
					{ "time": 0.1, "x": -12.38, "y": 0.58, "curve": "stepped" },
					{ "time": 0.3, "x": -12.38, "y": 0.58 }
				],
				"scale": [
					{ "time": 0.1, "x": 1, "y": 1, "curve": "stepped" },
					{ "time": 0.3, "x": 1, "y": 1 }
				]
			},
			"bn_right_thigh": {
				"rotate": [
					{
						"time": 0.0333,
						"angle": 324.15,
						"curve": [ 1, 0.02, 0.902, 0.98 ]
					},
					{ "time": 0.1, "angle": -35.84, "curve": "stepped" },
					{ "time": 0.3, "angle": -35.84 }
				],
				"translate": [
					{ "time": 0.1, "x": 0, "y": 0, "curve": "stepped" },
					{ "time": 0.3, "x": 0, "y": 0 }
				],
				"scale": [
					{ "time": 0.1, "x": 1, "y": 1, "curve": "stepped" },
					{ "time": 0.3, "x": 1, "y": 1 }
				]
			},
			"bn_left_thigh": {
				"rotate": [
					{ "time": 0.0333, "angle": 15.9, "curve": "stepped" },
					{ "time": 0.1, "angle": 15.9, "curve": "stepped" },
					{ "time": 0.3, "angle": 15.9 }
				],
				"translate": [
					{ "time": 0.1, "x": 0, "y": 0, "curve": "stepped" },
					{ "time": 0.3, "x": 0, "y": 0 }
				],
				"scale": [
					{ "time": 0.1, "x": 1, "y": 1, "curve": "stepped" },
					{ "time": 0.3, "x": 1, "y": 1 }
				]
			},
			"bn_right_bicep": {
				"rotate": [
					{
						"time": 0.0333,
						"angle": 13.75,
						"curve": [ 1, 0.02, 0.902, 0.98 ]
					},
					{
						"time": 0.1,
						"angle": 25.82,
						"curve": [ 1, 0.01, 0.864, 0.99 ]
					},
					{
						"time": 0.2,
						"angle": 98.91,
						"curve": [ 0.612, 0, 1, 0 ]
					},
					{ "time": 0.3, "angle": 25.82 }
				],
				"translate": [
					{
						"time": 0.1,
						"x": 0,
						"y": 0,
						"curve": [ 1, 0.01, 0.864, 0.99 ]
					},
					{
						"time": 0.2,
						"x": -24.19,
						"y": 27.48,
						"curve": [ 0.612, 0, 1, 0 ]
					},
					{ "time": 0.3, "x": 0, "y": 0 }
				],
				"scale": [
					{
						"time": 0.1,
						"x": 1,
						"y": 1,
						"curve": [ 1, 0.01, 0.864, 0.99 ]
					},
					{
						"time": 0.2,
						"x": 1.2,
						"y": 1.2,
						"curve": [ 0.612, 0, 1, 0 ]
					},
					{ "time": 0.3, "x": 1, "y": 1 }
				]
			},
			"bn_right_forearm": {
				"rotate": [
					{
						"time": 0.0333,
						"angle": 58.67,
						"curve": [ 1, 0.02, 0.902, 0.98 ]
					},
					{
						"time": 0.1,
						"angle": 72.58,
						"curve": [ 1, 0.01, 0.864, 0.99 ]
					},
					{
						"time": 0.2,
						"angle": -5.28,
						"curve": [ 0.612, 0, 1, 0 ]
					},
					{ "time": 0.3, "angle": 72.58 }
				],
				"translate": [
					{ "time": 0.1, "x": 0, "y": 0, "curve": "stepped" },
					{ "time": 0.3, "x": 0, "y": 0 }
				],
				"scale": [
					{
						"time": 0.1,
						"x": 1,
						"y": 1,
						"curve": [ 1, 0.01, 0.864, 0.99 ]
					},
					{
						"time": 0.2,
						"x": 1.2,
						"y": 1.2,
						"curve": [ 0.612, 0, 1, 0 ]
					},
					{ "time": 0.3, "x": 1, "y": 1 }
				]
			},
			"bn_left_bicep": {
				"rotate": [
					{
						"time": 0.0333,
						"angle": 0.21,
						"curve": [ 1, 0.02, 0.902, 0.98 ]
					},
					{
						"time": 0.1,
						"angle": 29.63,
						"curve": [ 1, 0.01, 0.864, 0.99 ]
					},
					{
						"time": 0.2,
						"angle": -18.8,
						"curve": [ 0.612, 0, 1, 0 ]
					},
					{ "time": 0.3, "angle": 29.63 }
				],
				"translate": [
					{ "time": 0.1, "x": 0, "y": 0, "curve": "stepped" },
					{ "time": 0.3, "x": 0, "y": 0 }
				],
				"scale": [
					{
						"time": 0.0333,
						"x": 1,
						"y": 1,
						"curve": [ 1, 0.02, 0.902, 0.98 ]
					},
					{
						"time": 0.1,
						"x": 1.223,
						"y": 1.223,
						"curve": [ 1, 0.01, 0.864, 0.99 ]
					},
					{
						"time": 0.2,
						"x": 1,
						"y": 1,
						"curve": [ 0.612, 0, 1, 0 ]
					},
					{ "time": 0.3, "x": 1.223, "y": 1.223 }
				]
			},
			"bn_left_forearm": {
				"rotate": [
					{
						"time": 0.0333,
						"angle": 108.35,
						"curve": [ 1, 0.02, 0.902, 0.98 ]
					},
					{
						"time": 0.1,
						"angle": 66.66,
						"curve": [ 1, 0.01, 0.864, 0.99 ]
					},
					{
						"time": 0.2,
						"angle": 153.07,
						"curve": [ 0.612, 0, 1, 0 ]
					},
					{ "time": 0.3, "angle": 66.66 }
				],
				"translate": [
					{ "time": 0.1, "x": 0, "y": 0, "curve": "stepped" },
					{ "time": 0.3, "x": 0, "y": 0 }
				],
				"scale": [
					{ "time": 0.0333, "x": 1, "y": -0.997, "curve": "stepped" },
					{ "time": 0.1, "x": 1, "y": -0.997, "curve": "stepped" },
					{ "time": 0.3, "x": 1, "y": -0.997 }
				]
			},
			"bn_left_hand": {
				"rotate": [
					{ "time": 0.0333, "angle": 12.96, "curve": "stepped" },
					{ "time": 0.1, "angle": 12.96, "curve": "stepped" },
					{ "time": 0.3, "angle": 12.96 }
				],
				"translate": [
					{ "time": 0.1, "x": 0, "y": 0, "curve": "stepped" },
					{ "time": 0.3, "x": 0, "y": 0 }
				],
				"scale": [
					{ "time": 0.0333, "x": 1.139, "y": 1.139, "curve": "stepped" },
					{ "time": 0.1, "x": 1.139, "y": 1.139, "curve": "stepped" },
					{ "time": 0.3, "x": 1.139, "y": 1.139 }
				]
			},
			"bn_right_calf": {
				"rotate": [
					{ "time": 0.0333, "angle": 37.09, "curve": "stepped" },
					{ "time": 0.1, "angle": 37.09, "curve": "stepped" },
					{ "time": 0.3, "angle": 37.09 }
				],
				"translate": [
					{ "time": 0.1, "x": 0, "y": 0, "curve": "stepped" },
					{ "time": 0.3, "x": 0, "y": 0 }
				],
				"scale": [
					{ "time": 0.1, "x": 1, "y": 1, "curve": "stepped" },
					{ "time": 0.3, "x": 1, "y": 1 }
				]
			},
			"bn_left_calf": {
				"rotate": [
					{ "time": 0.0333, "angle": -16.35, "curve": "stepped" },
					{ "time": 0.1, "angle": -16.35, "curve": "stepped" },
					{ "time": 0.3, "angle": -16.35 }
				],
				"translate": [
					{ "time": 0.1, "x": 0, "y": 0, "curve": "stepped" },
					{ "time": 0.3, "x": 0, "y": 0 }
				],
				"scale": [
					{ "time": 0.1, "x": 1, "y": 1, "curve": "stepped" },
					{ "time": 0.3, "x": 1, "y": 1 }
				]
			},
			"bn_skull": {
				"rotate": [
					{ "time": 0.1, "angle": -4.42 },
					{ "time": 0.3, "angle": 0 }
				],
				"translate": [
					{ "time": 0.1, "x": 0, "y": 0, "curve": "stepped" },
					{ "time": 0.3, "x": 0, "y": 0 }
				],
				"scale": [
					{ "time": 0.1, "x": 1, "y": 1, "curve": "stepped" },
					{ "time": 0.3, "x": 1, "y": 1 }
				]
			},
			"bn_right_hand": {
				"rotate": [
					{
						"time": 0.1,
						"angle": 0,
						"curve": [ 1, 0.01, 0.864, 0.99 ]
					},
					{
						"time": 0.2,
						"angle": -6.96,
						"curve": [ 0.612, 0, 1, 0 ]
					},
					{ "time": 0.3, "angle": 0 }
				],
				"translate": [
					{ "time": 0.1, "x": 0, "y": 0, "curve": "stepped" },
					{ "time": 0.3, "x": 0, "y": 0 }
				],
				"scale": [
					{
						"time": 0.1,
						"x": 1,
						"y": 1,
						"curve": [ 1, 0.01, 0.864, 0.99 ]
					},
					{
						"time": 0.2,
						"x": 1.5,
						"y": 1.5,
						"curve": [ 0.612, 0, 1, 0 ]
					},
					{ "time": 0.3, "x": 1, "y": 1 }
				]
			},
			"root": {
				"rotate": [
					{ "time": 0.1, "angle": 0, "curve": "stepped" },
					{ "time": 0.3, "angle": 0 }
				],
				"translate": [
					{ "time": 0.1, "x": 0, "y": 0, "curve": "stepped" },
					{ "time": 0.3, "x": 0, "y": 0 }
				],
				"scale": [
					{ "time": 0.1, "x": 1, "y": 1, "curve": "stepped" },
					{ "time": 0.3, "x": 1, "y": 1 }
				]
			},
			"bn_spine_1": {
				"rotate": [
					{ "time": 0.1, "angle": 0, "curve": "stepped" },
					{ "time": 0.3, "angle": 0 }
				],
				"translate": [
					{ "time": 0.1, "x": 0, "y": 0, "curve": "stepped" },
					{ "time": 0.3, "x": 0, "y": 0 }
				],
				"scale": [
					{ "time": 0.1, "x": 1, "y": 1, "curve": "stepped" },
					{ "time": 0.3, "x": 1, "y": 1 }
				]
			},
			"bn_neck": {
				"rotate": [
					{ "time": 0.1, "angle": 0, "curve": "stepped" },
					{ "time": 0.3, "angle": 0 }
				],
				"translate": [
					{ "time": 0.1, "x": 0, "y": 0, "curve": "stepped" },
					{ "time": 0.3, "x": 0, "y": 0 }
				],
				"scale": [
					{ "time": 0.1, "x": 1, "y": 1, "curve": "stepped" },
					{ "time": 0.3, "x": 1, "y": 1 }
				]
			},
			"bn_right_clavicle": {
				"rotate": [
					{ "time": 0.1, "angle": 0, "curve": "stepped" },
					{ "time": 0.3, "angle": 0 }
				],
				"translate": [
					{ "time": 0.1, "x": 0, "y": 0, "curve": "stepped" },
					{ "time": 0.3, "x": 0, "y": 0 }
				],
				"scale": [
					{ "time": 0.1, "x": 1, "y": 1, "curve": "stepped" },
					{ "time": 0.3, "x": 1, "y": 1 }
				]
			},
			"bn_left_clavicle": {
				"rotate": [
					{ "time": 0.1, "angle": 0, "curve": "stepped" },
					{ "time": 0.3, "angle": 0 }
				],
				"translate": [
					{ "time": 0.1, "x": 0, "y": 0, "curve": "stepped" },
					{ "time": 0.3, "x": 0, "y": 0 }
				],
				"scale": [
					{ "time": 0.1, "x": 1, "y": 1, "curve": "stepped" },
					{ "time": 0.3, "x": 1, "y": 1 }
				]
			},
			"bn_hat": {
				"rotate": [
					{ "time": 0.1, "angle": 0, "curve": "stepped" },
					{ "time": 0.3, "angle": 0 }
				],
				"translate": [
					{
						"time": 0.1,
						"x": 0,
						"y": 0,
						"curve": [ 1, 0.01, 0.864, 0.99 ]
					},
					{
						"time": 0.2,
						"x": -16.46,
						"y": 4.85,
						"curve": [ 0.612, 0, 1, 0 ]
					},
					{ "time": 0.3, "x": 0, "y": 0 }
				],
				"scale": [
					{ "time": 0.1, "x": 1, "y": 1, "curve": "stepped" },
					{ "time": 0.3, "x": 1, "y": 1 }
				]
			},
			"bn_eyes": {
				"rotate": [
					{ "time": 0.1, "angle": 0, "curve": "stepped" },
					{ "time": 0.3, "angle": 0 }
				],
				"translate": [
					{ "time": 0.1, "x": 0, "y": 0, "curve": "stepped" },
					{ "time": 0.3, "x": 0, "y": 0 }
				],
				"scale": [
					{ "time": 0.1, "x": 1, "y": 1, "curve": "stepped" },
					{ "time": 0.3, "x": 1, "y": 1 }
				]
			},
			"bn_left_eye": {
				"rotate": [
					{ "time": 0.1, "angle": 0, "curve": "stepped" },
					{ "time": 0.3, "angle": 0 }
				],
				"translate": [
					{ "time": 0.1, "x": 0, "y": 0, "curve": "stepped" },
					{ "time": 0.3, "x": 0, "y": 0 }
				],
				"scale": [
					{ "time": 0.1, "x": 1, "y": 1, "curve": "stepped" },
					{ "time": 0.3, "x": 1, "y": 1 }
				]
			},
			"bn_right_eye": {
				"rotate": [
					{ "time": 0.1, "angle": 0, "curve": "stepped" },
					{ "time": 0.3, "angle": 0 }
				],
				"translate": [
					{ "time": 0.1, "x": 0, "y": 0, "curve": "stepped" },
					{ "time": 0.3, "x": 0, "y": 0 }
				],
				"scale": [
					{ "time": 0.1, "x": 1, "y": 1, "curve": "stepped" },
					{ "time": 0.3, "x": 1, "y": 1 }
				]
			},
			"bn_right_foot": {
				"rotate": [
					{ "time": 0.1, "angle": 0, "curve": "stepped" },
					{ "time": 0.3, "angle": 0 }
				],
				"translate": [
					{ "time": 0.1, "x": 0, "y": 0, "curve": "stepped" },
					{ "time": 0.3, "x": 0, "y": 0 }
				],
				"scale": [
					{ "time": 0.1, "x": 1, "y": 1, "curve": "stepped" },
					{ "time": 0.3, "x": 1, "y": 1 }
				]
			},
			"bn_left_foot_side": {
				"rotate": [
					{ "time": 0.1, "angle": 0, "curve": "stepped" },
					{ "time": 0.3, "angle": 0 }
				],
				"translate": [
					{ "time": 0.1, "x": 0, "y": 0, "curve": "stepped" },
					{ "time": 0.3, "x": 0, "y": 0 }
				],
				"scale": [
					{ "time": 0.1, "x": 1, "y": 1, "curve": "stepped" },
					{ "time": 0.3, "x": 1, "y": 1 }
				]
			}
		}
	},
	"idle": {
		"bones": {
			"root": {
				"rotate": [
					{ "time": 0, "angle": 0, "curve": "stepped" },
					{ "time": 1, "angle": 0 }
				],
				"translate": [
					{ "time": 0, "x": 0, "y": 0, "curve": "stepped" },
					{ "time": 1, "x": 0, "y": 0 }
				],
				"scale": [
					{ "time": 0, "x": 1, "y": 1, "curve": "stepped" },
					{ "time": 1, "x": 1, "y": 1 }
				]
			},
			"bn_spine_1": {
				"rotate": [
					{ "time": 0, "angle": 0, "curve": "stepped" },
					{ "time": 1, "angle": 0 }
				],
				"translate": [
					{ "time": 0, "x": 0, "y": 0 },
					{ "time": 0.5, "x": -1, "y": -14.99 },
					{ "time": 1, "x": 0, "y": 0 }
				],
				"scale": [
					{ "time": 0, "x": 1, "y": 1, "curve": "stepped" },
					{ "time": 1, "x": 1, "y": 1 }
				]
			},
			"bn_spine_2": {
				"rotate": [
					{ "time": 0, "angle": 0, "curve": "stepped" },
					{ "time": 1, "angle": 0 }
				],
				"translate": [
					{ "time": 0, "x": 0, "y": 0, "curve": "stepped" },
					{ "time": 1, "x": 0, "y": 0 }
				],
				"scale": [
					{ "time": 0, "x": 1, "y": 1, "curve": "stepped" },
					{ "time": 1, "x": 1, "y": 1 }
				]
			},
			"bn_right_thigh": {
				"rotate": [
					{ "time": 0, "angle": 0, "curve": "stepped" },
					{ "time": 1, "angle": 0 }
				],
				"translate": [
					{ "time": 0, "x": 0, "y": 0 },
					{ "time": 0.5, "x": 14.93, "y": -1.7 },
					{ "time": 1, "x": 0, "y": 0 }
				],
				"scale": [
					{ "time": 0, "x": 1, "y": 1, "curve": "stepped" },
					{ "time": 1, "x": 1, "y": 1 }
				]
			},
			"bn_left_thigh": {
				"rotate": [
					{ "time": 0, "angle": 0, "curve": "stepped" },
					{ "time": 1, "angle": 0 }
				],
				"translate": [
					{ "time": 0, "x": 0, "y": 0 },
					{ "time": 0.5, "x": 14.93, "y": -1.7 },
					{ "time": 1, "x": 0, "y": 0 }
				],
				"scale": [
					{ "time": 0, "x": 1, "y": 1, "curve": "stepped" },
					{ "time": 1, "x": 1, "y": 1 }
				]
			},
			"bn_neck": {
				"rotate": [
					{ "time": 0, "angle": 0, "curve": "stepped" },
					{ "time": 1, "angle": 0 }
				],
				"translate": [
					{ "time": 0, "x": 0, "y": 0, "curve": "stepped" },
					{ "time": 1, "x": 0, "y": 0 }
				],
				"scale": [
					{ "time": 0, "x": 1, "y": 1, "curve": "stepped" },
					{ "time": 1, "x": 1, "y": 1 }
				]
			},
			"bn_right_clavicle": {
				"rotate": [
					{ "time": 0, "angle": 0, "curve": "stepped" },
					{ "time": 1, "angle": 0 }
				],
				"translate": [
					{ "time": 0, "x": 0, "y": 0, "curve": "stepped" },
					{ "time": 1, "x": 0, "y": 0 }
				],
				"scale": [
					{ "time": 0, "x": 1, "y": 1, "curve": "stepped" },
					{ "time": 1, "x": 1, "y": 1 }
				]
			},
			"bn_left_clavicle": {
				"rotate": [
					{ "time": 0, "angle": 0, "curve": "stepped" },
					{ "time": 1, "angle": 0 }
				],
				"translate": [
					{ "time": 0, "x": 0, "y": 0, "curve": "stepped" },
					{ "time": 1, "x": 0, "y": 0 }
				],
				"scale": [
					{ "time": 0, "x": 1, "y": 1, "curve": "stepped" },
					{ "time": 1, "x": 1, "y": 1 }
				]
			},
			"bn_skull": {
				"rotate": [
					{ "time": 0, "angle": 0, "curve": "stepped" },
					{ "time": 1, "angle": 0 }
				],
				"translate": [
					{ "time": 0, "x": 0, "y": 0, "curve": "stepped" },
					{ "time": 1, "x": 0, "y": 0 }
				],
				"scale": [
					{ "time": 0, "x": 1, "y": 1, "curve": "stepped" },
					{ "time": 1, "x": 1, "y": 1 }
				]
			},
			"bn_hat": {
				"rotate": [
					{ "time": 0, "angle": 0, "curve": "stepped" },
					{ "time": 1, "angle": 0 }
				],
				"translate": [
					{ "time": 0, "x": 0, "y": 0, "curve": "stepped" },
					{ "time": 1, "x": 0, "y": 0 }
				],
				"scale": [
					{ "time": 0, "x": 1, "y": 1, "curve": "stepped" },
					{ "time": 1, "x": 1, "y": 1 }
				]
			},
			"bn_eyes": {
				"rotate": [
					{ "time": 0, "angle": 0, "curve": "stepped" },
					{ "time": 1, "angle": 0 }
				],
				"translate": [
					{ "time": 0, "x": 0, "y": 0, "curve": "stepped" },
					{ "time": 1, "x": 0, "y": 0 }
				],
				"scale": [
					{ "time": 0, "x": 1, "y": 1, "curve": "stepped" },
					{ "time": 1, "x": 1, "y": 1 }
				]
			},
			"bn_left_eye": {
				"rotate": [
					{ "time": 0, "angle": 0, "curve": "stepped" },
					{ "time": 1, "angle": 0 }
				],
				"translate": [
					{ "time": 0, "x": 0, "y": 0, "curve": "stepped" },
					{ "time": 1, "x": 0, "y": 0 }
				],
				"scale": [
					{ "time": 0, "x": 1, "y": 1, "curve": "stepped" },
					{ "time": 1, "x": 1, "y": 1 }
				]
			},
			"bn_right_eye": {
				"rotate": [
					{ "time": 0, "angle": 0, "curve": "stepped" },
					{ "time": 1, "angle": 0 }
				],
				"translate": [
					{ "time": 0, "x": 0, "y": 0, "curve": "stepped" },
					{ "time": 1, "x": 0, "y": 0 }
				],
				"scale": [
					{ "time": 0, "x": 1, "y": 1, "curve": "stepped" },
					{ "time": 1, "x": 1, "y": 1 }
				]
			},
			"bn_right_bicep": {
				"rotate": [
					{ "time": 0, "angle": 0 },
					{ "time": 0.5, "angle": -10.98 },
					{ "time": 1, "angle": 0 }
				],
				"translate": [
					{ "time": 0, "x": 0, "y": 0 },
					{ "time": 0.5, "x": -1.85, "y": -11.89 },
					{ "time": 1, "x": 0, "y": 0 }
				],
				"scale": [
					{ "time": 0, "x": 1, "y": 1, "curve": "stepped" },
					{ "time": 1, "x": 1, "y": 1 }
				]
			},
			"bn_right_forearm": {
				"rotate": [
					{ "time": 0, "angle": 0, "curve": "stepped" },
					{ "time": 1, "angle": 0 }
				],
				"translate": [
					{ "time": 0, "x": 0, "y": 0, "curve": "stepped" },
					{ "time": 1, "x": 0, "y": 0 }
				],
				"scale": [
					{ "time": 0, "x": 1, "y": 1, "curve": "stepped" },
					{ "time": 1, "x": 1, "y": 1 }
				]
			},
			"bn_right_hand": {
				"rotate": [
					{ "time": 0, "angle": 0, "curve": "stepped" },
					{ "time": 1, "angle": 0 }
				],
				"translate": [
					{ "time": 0, "x": 0, "y": 0, "curve": "stepped" },
					{ "time": 1, "x": 0, "y": 0 }
				],
				"scale": [
					{ "time": 0, "x": 1, "y": 1, "curve": "stepped" },
					{ "time": 1, "x": 1, "y": 1 }
				]
			},
			"bn_left_bicep": {
				"rotate": [
					{ "time": 0, "angle": 0 },
					{ "time": 0.5, "angle": 14.49 },
					{ "time": 1, "angle": 0 }
				],
				"translate": [
					{ "time": 0, "x": 0, "y": 0 },
					{ "time": 0.5, "x": -3.58, "y": 11.49 },
					{ "time": 1, "x": 0, "y": 0 }
				],
				"scale": [
					{ "time": 0, "x": 1, "y": 1, "curve": "stepped" },
					{ "time": 1, "x": 1, "y": 1 }
				]
			},
			"bn_left_forearm": {
				"rotate": [
					{ "time": 0, "angle": 0, "curve": "stepped" },
					{ "time": 1, "angle": 0 }
				],
				"translate": [
					{ "time": 0, "x": 0, "y": 0, "curve": "stepped" },
					{ "time": 1, "x": 0, "y": 0 }
				],
				"scale": [
					{ "time": 0, "x": 1, "y": 1, "curve": "stepped" },
					{ "time": 1, "x": 1, "y": 1 }
				]
			},
			"bn_left_hand": {
				"rotate": [
					{ "time": 0, "angle": 0, "curve": "stepped" },
					{ "time": 1, "angle": 0 }
				],
				"translate": [
					{ "time": 0, "x": 0, "y": 0, "curve": "stepped" },
					{ "time": 1, "x": 0, "y": 0 }
				],
				"scale": [
					{ "time": 0, "x": 1, "y": 1, "curve": "stepped" },
					{ "time": 1, "x": 1, "y": 1 }
				]
			},
			"bn_right_calf": {
				"rotate": [
					{ "time": 0, "angle": 0, "curve": "stepped" },
					{ "time": 1, "angle": 0 }
				],
				"translate": [
					{ "time": 0, "x": 0, "y": 0, "curve": "stepped" },
					{ "time": 1, "x": 0, "y": 0 }
				],
				"scale": [
					{ "time": 0, "x": 1, "y": 1, "curve": "stepped" },
					{ "time": 1, "x": 1, "y": 1 }
				]
			},
			"bn_right_foot": {
				"rotate": [
					{ "time": 0, "angle": 0, "curve": "stepped" },
					{ "time": 1, "angle": 0 }
				],
				"translate": [
					{ "time": 0, "x": 0, "y": 0, "curve": "stepped" },
					{ "time": 1, "x": 0, "y": 0 }
				],
				"scale": [
					{ "time": 0, "x": 1, "y": 1, "curve": "stepped" },
					{ "time": 1, "x": 1, "y": 1 }
				]
			},
			"bn_left_calf": {
				"rotate": [
					{ "time": 0, "angle": 0, "curve": "stepped" },
					{ "time": 1, "angle": 0 }
				],
				"translate": [
					{ "time": 0, "x": 0, "y": 0, "curve": "stepped" },
					{ "time": 1, "x": 0, "y": 0 }
				],
				"scale": [
					{ "time": 0, "x": 1, "y": 1, "curve": "stepped" },
					{ "time": 1, "x": 1, "y": 1 }
				]
			},
			"bn_left_foot_side": {
				"rotate": [
					{ "time": 0, "angle": 0, "curve": "stepped" },
					{ "time": 1, "angle": 0 }
				],
				"translate": [
					{ "time": 0, "x": 0, "y": 0, "curve": "stepped" },
					{ "time": 1, "x": 0, "y": 0 }
				],
				"scale": [
					{ "time": 0, "x": 1, "y": 1, "curve": "stepped" },
					{ "time": 1, "x": 1, "y": 1 }
				]
			}
		}
	},
	"death_1": {
		"bones": {
			"bn_spine_1": {
				"rotate": [
					{ "time": 0, "angle": 0 },
					{ "time": 0.1333, "angle": 13.82 },
					{ "time": 0.3333, "angle": 75 }
				],
				"translate": [
					{ "time": 0, "x": 0, "y": 0 },
					{ "time": 0.1333, "x": 24.14, "y": 31.12 },
					{ "time": 0.3333, "x": 122.75, "y": -43.08 }
				],
				"scale": [
					{ "time": 0, "x": 1, "y": 1 }
				]
			},
			"bn_spine_2": {
				"rotate": [
					{ "time": 0, "angle": 0 },
					{ "time": 0.1333, "angle": -16.4 },
					{ "time": 0.3333, "angle": 7.3 }
				],
				"translate": [
					{ "time": 0, "x": 0, "y": 0 }
				],
				"scale": [
					{ "time": 0, "x": 1, "y": 1 }
				]
			},
			"bn_right_thigh": {
				"rotate": [
					{ "time": 0, "angle": 0 },
					{ "time": 0.1333, "angle": 50.73 },
					{ "time": 0.3333, "angle": 51.97 }
				],
				"translate": [
					{ "time": 0, "x": 0, "y": 0 }
				],
				"scale": [
					{ "time": 0, "x": 1, "y": 1 }
				]
			},
			"bn_left_thigh": {
				"rotate": [
					{ "time": 0, "angle": 0 },
					{ "time": 0.1333, "angle": 50.73 },
					{ "time": 0.3333, "angle": 322.78 }
				],
				"translate": [
					{ "time": 0, "x": 0, "y": 0 }
				],
				"scale": [
					{ "time": 0, "x": 1, "y": 1 }
				]
			},
			"bn_right_bicep": {
				"rotate": [
					{ "time": 0, "angle": 0 },
					{ "time": 0.1333, "angle": 92.26 },
					{ "time": 0.3333, "angle": 38.15 },
					{ "time": 0.5, "angle": 34.88 }
				],
				"translate": [
					{ "time": 0, "x": 0, "y": 0 }
				],
				"scale": [
					{ "time": 0, "x": 1, "y": 1 }
				]
			},
			"bn_left_bicep": {
				"rotate": [
					{ "time": 0, "angle": -31.47 },
					{ "time": 0.1333, "angle": 25.59 },
					{ "time": 0.3333, "angle": -23.9 },
					{ "time": 0.5, "angle": -107.91 }
				],
				"translate": [
					{ "time": 0, "x": 0, "y": 0 }
				],
				"scale": [
					{ "time": 0, "x": 1, "y": -1, "curve": "stepped" },
					{ "time": 0.1333, "x": 1, "y": -1 }
				]
			},
			"bn_left_forearm": {
				"rotate": [
					{ "time": 0, "angle": 66.2 },
					{ "time": 0.1333, "angle": 85.13 }
				],
				"translate": [
					{ "time": 0, "x": 0, "y": 0 }
				],
				"scale": [
					{ "time": 0, "x": 1, "y": 1 }
				]
			},
			"root": {
				"rotate": [
					{ "time": 0, "angle": 0 }
				],
				"translate": [
					{ "time": 0, "x": 0, "y": 0 }
				],
				"scale": [
					{ "time": 0, "x": 1, "y": 1 }
				]
			},
			"bn_neck": {
				"rotate": [
					{ "time": 0, "angle": 0 }
				],
				"translate": [
					{ "time": 0, "x": 0, "y": 0 }
				],
				"scale": [
					{ "time": 0, "x": 1, "y": 1 }
				]
			},
			"bn_right_clavicle": {
				"rotate": [
					{ "time": 0, "angle": 0 }
				],
				"translate": [
					{ "time": 0, "x": 0, "y": 0 }
				],
				"scale": [
					{ "time": 0, "x": 1, "y": 1 }
				]
			},
			"bn_left_clavicle": {
				"rotate": [
					{ "time": 0, "angle": 0 }
				],
				"translate": [
					{ "time": 0, "x": 0, "y": 0 }
				],
				"scale": [
					{ "time": 0, "x": 1, "y": 1 }
				]
			},
			"bn_skull": {
				"rotate": [
					{ "time": 0, "angle": 0 },
					{ "time": 0.3333, "angle": -46.35 },
					{ "time": 0.5, "angle": -8.76 }
				],
				"translate": [
					{ "time": 0, "x": 0, "y": 0 }
				],
				"scale": [
					{ "time": 0, "x": 1, "y": 1 }
				]
			},
			"bn_hat": {
				"rotate": [
					{ "time": 0, "angle": 0 },
					{ "time": 0.1333, "angle": 53.3 },
					{ "time": 0.2666, "angle": -4.8 },
					{ "time": 0.4, "angle": -30.69 },
					{ "time": 0.5, "angle": -42.15 }
				],
				"translate": [
					{ "time": 0, "x": 0, "y": 0 },
					{ "time": 0.1333, "x": 38.03, "y": 42.56 },
					{ "time": 0.2666, "x": 64.02, "y": -25.75 },
					{ "time": 0.4, "x": 1.44, "y": -49.55 },
					{ "time": 0.5, "x": -24.16, "y": 2.87 }
				],
				"scale": [
					{ "time": 0, "x": 1, "y": 1 }
				]
			},
			"bn_eyes": {
				"rotate": [
					{ "time": 0, "angle": 0 }
				],
				"translate": [
					{ "time": 0, "x": 0, "y": 0 }
				],
				"scale": [
					{ "time": 0, "x": 1, "y": 1 },
					{ "time": 0.5, "x": 0.231, "y": 1 }
				]
			},
			"bn_left_eye": {
				"rotate": [
					{ "time": 0, "angle": 0 }
				],
				"translate": [
					{ "time": 0, "x": 0, "y": 0 }
				],
				"scale": [
					{ "time": 0, "x": 1, "y": 1 }
				]
			},
			"bn_right_eye": {
				"rotate": [
					{ "time": 0, "angle": 0 },
					{ "time": 0.5, "angle": 3.34 }
				],
				"translate": [
					{ "time": 0, "x": 0, "y": 0 }
				],
				"scale": [
					{ "time": 0, "x": 1, "y": 1 }
				]
			},
			"bn_right_forearm": {
				"rotate": [
					{ "time": 0, "angle": 0 },
					{ "time": 0.3333, "angle": 7.99 },
					{ "time": 0.5, "angle": -19.07 }
				],
				"translate": [
					{ "time": 0, "x": 0, "y": 0 }
				],
				"scale": [
					{ "time": 0, "x": 1, "y": 1 }
				]
			},
			"bn_right_hand": {
				"rotate": [
					{ "time": 0, "angle": 0 },
					{ "time": 0.5, "angle": -22.29 }
				],
				"translate": [
					{ "time": 0, "x": 0, "y": 0 }
				],
				"scale": [
					{ "time": 0, "x": 1, "y": 1 }
				]
			},
			"bn_left_hand": {
				"rotate": [
					{ "time": 0, "angle": 0 }
				],
				"translate": [
					{ "time": 0, "x": 0, "y": 0 }
				],
				"scale": [
					{ "time": 0, "x": 1, "y": 1 }
				]
			},
			"bn_right_calf": {
				"rotate": [
					{ "time": 0, "angle": 0 },
					{ "time": 0.3333, "angle": -26.23 }
				],
				"translate": [
					{ "time": 0, "x": 0, "y": 0 }
				],
				"scale": [
					{ "time": 0, "x": 1, "y": 1 }
				]
			},
			"bn_right_foot": {
				"rotate": [
					{ "time": 0, "angle": 0 },
					{ "time": 0.3333, "angle": -15.87 }
				],
				"translate": [
					{ "time": 0, "x": 0, "y": 0 }
				],
				"scale": [
					{ "time": 0, "x": 1, "y": 1 }
				]
			},
			"bn_left_calf": {
				"rotate": [
					{ "time": 0, "angle": 0 }
				],
				"translate": [
					{ "time": 0, "x": 0, "y": 0 }
				],
				"scale": [
					{ "time": 0, "x": 1, "y": 1 }
				]
			},
			"bn_left_foot_side": {
				"rotate": [
					{ "time": 0, "angle": 0 },
					{ "time": 0.3333, "angle": -15.66 }
				],
				"translate": [
					{ "time": 0, "x": 0, "y": 0 }
				],
				"scale": [
					{ "time": 0, "x": 1, "y": 1 }
				]
			}
		}
	},
	"jump": {
		"bones": {
			"bn_spine_1": {
				"rotate": [
					{ "time": 0.2333, "angle": 0 },
					{ "time": 0.4, "angle": 12.02, "curve": "stepped" },
					{ "time": 0.9333, "angle": 12.02 }
				],
				"translate": [
					{ "time": 0, "x": -1.52, "y": 32.32, "curve": "stepped" },
					{ "time": 0.2333, "x": -1.52, "y": 32.32 }
				],
				"scale": [
					{ "time": 0.2333, "x": 1, "y": 1 }
				]
			},
			"bn_right_thigh": {
				"rotate": [
					{
						"time": 0,
						"angle": 325.83,
						"curve": [ 0.994, 0, 0.747, 0.81 ]
					},
					{ "time": 0.2333, "angle": 3.23 },
					{ "time": 0.4, "angle": 18.63 },
					{ "time": 0.6666, "angle": 338.95 },
					{ "time": 0.9333, "angle": 18.63 }
				]
			},
			"bn_left_thigh": {
				"rotate": [
					{
						"time": 0,
						"angle": 54.2,
						"curve": [ 0.994, 0, 0.747, 0.81 ]
					},
					{ "time": 0.2333, "angle": 33.76 },
					{ "time": 0.4, "angle": 60.45 },
					{ "time": 0.6666, "angle": 41.69 },
					{ "time": 0.9333, "angle": 60.45 }
				]
			},
			"bn_right_bicep": {
				"rotate": [
					{
						"time": 0,
						"angle": -67.45,
						"curve": [ 0.994, 0, 0.747, 0.81 ]
					},
					{ "time": 0.2333, "angle": -18.69 },
					{ "time": 0.4, "angle": 3.35 },
					{ "time": 0.6666, "angle": -10.51 },
					{ "time": 0.9333, "angle": 3.35 }
				]
			},
			"bn_right_forearm": {
				"rotate": [
					{
						"time": 0,
						"angle": -22.04,
						"curve": [ 0.994, 0, 0.747, 0.81 ]
					},
					{ "time": 0.4, "angle": 56.86 },
					{ "time": 0.6666, "angle": 31.44 },
					{ "time": 0.9333, "angle": 56.86 }
				]
			},
			"bn_left_bicep": {
				"rotate": [
					{
						"time": 0,
						"angle": 22.55,
						"curve": [ 0.994, 0, 0.747, 0.81 ]
					},
					{ "time": 0.2333, "angle": 0.13 },
					{ "time": 0.4, "angle": 20.37, "curve": "stepped" },
					{ "time": 0.9333, "angle": 20.37 }
				]
			},
			"bn_left_forearm": {
				"rotate": [
					{
						"time": 0,
						"angle": 62.7,
						"curve": [ 0.994, 0, 0.747, 0.81 ]
					},
					{ "time": 0.4, "angle": 14.78 },
					{ "time": 0.6666, "angle": 40.52 },
					{ "time": 0.9333, "angle": 14.78 }
				]
			},
			"bn_right_calf": {
				"rotate": [
					{
						"time": 0,
						"angle": 29.93,
						"curve": [ 0.994, 0, 0.747, 0.81 ]
					},
					{ "time": 0.2333, "angle": 5.18 },
					{ "time": 0.4, "angle": 3.91 },
					{ "time": 0.6666, "angle": 25.8 },
					{ "time": 0.9333, "angle": 3.91 }
				],
				"translate": [
					{
						"time": 0,
						"x": -1.73,
						"y": 5.82,
						"curve": [ 0.994, 0, 0.747, 0.81 ]
					},
					{ "time": 0.2333, "x": -1.25, "y": 1.93 }
				]
			},
			"bn_left_calf": {
				"rotate": [
					{
						"time": 0,
						"angle": -38.07,
						"curve": [ 0.994, 0, 0.747, 0.81 ]
					},
					{ "time": 0.4, "angle": -63.33, "curve": "stepped" },
					{ "time": 0.9333, "angle": -63.33 }
				]
			},
			"bn_right_foot": {
				"rotate": [
					{ "time": 0, "angle": -23.91 },
					{ "time": 0.4, "angle": -13.59 },
					{ "time": 0.6666, "angle": -32.62 },
					{ "time": 0.9333, "angle": -13.59 }
				]
			},
			"bn_hat": {
				"rotate": [
					{
						"time": 0,
						"angle": 0,
						"curve": [ 0.994, 0, 0.747, 0.81 ]
					},
					{ "time": 0.4, "angle": 17.55 },
					{ "time": 0.6666, "angle": -3.9 },
					{ "time": 0.9333, "angle": 17.55 }
				],
				"translate": [
					{
						"time": 0,
						"x": -29.59,
						"y": 8.73,
						"curve": [ 0.994, 0, 0.747, 0.81 ]
					},
					{ "time": 0.3666, "x": -22.78, "y": 5.39 },
					{ "time": 0.4, "x": 34, "y": -9.82, "curve": "stepped" },
					{ "time": 0.9333, "x": 34, "y": -9.82 }
				]
			},
			"bn_left_foot_side": {
				"rotate": [
					{ "time": 0.2333, "angle": -31.29 }
				]
			},
			"bn_eyes": {
				"rotate": [
					{ "time": 0.4, "angle": -7.55, "curve": "stepped" },
					{ "time": 0.9333, "angle": -7.55 }
				],
				"translate": [
					{ "time": 0.4, "x": -6.18, "y": 7.13, "curve": "stepped" },
					{ "time": 0.9333, "x": -6.18, "y": 7.13 }
				],
				"scale": [
					{ "time": 0.2333, "x": 1, "y": 1 },
					{ "time": 0.4, "x": 0.657, "y": 1.002, "curve": "stepped" },
					{ "time": 0.9333, "x": 0.657, "y": 1.002 }
				]
			},
			"bn_skull": {
				"rotate": [
					{ "time": 0.2333, "angle": 0 },
					{ "time": 0.4, "angle": -18.91 },
					{ "time": 0.6666, "angle": -7.78 },
					{ "time": 0.9333, "angle": -18.91 }
				]
			}
		}
	}
}
}